…
## 1. Does this choice depend on Season?

``` r
flights %>% 
  group_by(hour,month) %>% 
  summarise(arr_delay=mean(arr_delay, na.rm = TRUE)) %>% 
  arrange(arr_delay)
```

    ## `summarise()` has grouped output by 'hour'. You can override using the `.groups`
    ## argument.

    ## # A tibble: 229 × 3
    ## # Groups:   hour [20]
    ##     hour month arr_delay
    ##    <dbl> <int>     <dbl>
    ##  1     5     9    -13.5 
    ##  2     9     9    -13.0 
    ##  3     7     9    -12.5 
    ##  4     6     9    -11.4 
    ##  5     7     5    -11.0 
    ##  6     8     9     -9.95
    ##  7     5    11     -9.86
    ##  8     5     5     -9.48
    ##  9     6     5     -9.22
    ## 10     5    10     -8.68
    ## # … with 219 more rows
…
## 4. Does this choice depend on distance ?

##### We tried to find the relationship between distance and the choice of the lowest possible delay time period. In the table below, we did not find a valid and obvious relationship.

``` r
flights %>% 
  group_by(hour,distance) %>% 
  summarise(arr_delay=mean(arr_delay, na.rm = TRUE)) %>% 
  arrange(arr_delay)
```

    ## `summarise()` has grouped output by 'hour'. You can override using the `.groups`
    ## argument.

    ## # A tibble: 2,013 × 3
    ## # Groups:   hour [20]
    ##     hour distance arr_delay
    ##    <dbl>    <dbl>     <dbl>
    ##  1    20     1183     -58  
    ##  2     8     1391     -47  
    ##  3    19      585     -44  
    ##  4    12     1598     -40  
    ##  5    20      963     -38  
    ##  6    18      828     -35.7
    ##  7     8      198     -35.1
    ##  8     7      419     -35  
    ##  9    13      198     -35  
    ## 10    19      641     -35  
    ## # … with 2,003 more rows
…
